Retrieve Area Boundaries and Data from the ONS Open Geography Portal • boundr
…
You can just request bare lookup tables - no spatial data attached

create_lookup_table("spc", "spr")
#> # A tibble: 73 × 4
#>    spc22cd   spc22nm                        spr22cd   spr22nm              
#>    <chr>     <chr>                          <chr>     <chr>                
#>  1 S16000083 Argyll and Bute                S17000011 Highlands and Islands
#>  2 S16000086 Caithness, Sutherland and Ross S17000011 Highlands and Islands
#>  3 S16000110 Na h-Eileanan an Iar           S17000011 Highlands and Islands
#>  4 S16000125 Inverness and Nairn            S17000011 Highlands and Islands
#>  5 S16000132 Moray                          S17000011 Highlands and Islands
#>  6 S16000135 Orkney Islands                 S17000011 Highlands and Islands
#>  7 S16000142 Shetland Islands               S17000011 Highlands and Islands
#>  8 S16000143 Skye, Lochaber and Badenoch    S17000011 Highlands and Islands
#>  9 S16000080 Almond Valley                  S17000012 Lothian              
#> 10 S16000104 Edinburgh Central              S17000012 Lothian              
#> # ℹ 63 more rows

A lookup table for Welsh local authorities to Senedd electoral regions

Sometimes boundr needs a little help finding what you are looking for. Supplying a year or country filter can help get the right table.

Using return_with = "full" includes all available columns, not just those referred to by the lookup and within arguments.

# This doesn't succeed:
# create_lookup_table("wd", "sener")

# supplying a year helps:
create_lookup_table("wd", "sener", lookup_year = 2022, return_width = "full")
#> # A tibble: 764 × 7
#>    wd22cd    wd22nm                ua22cd    ua22nm  ua22nmw sener22cd sener22nm
#>    <chr>     <chr>                 <chr>     <chr>   <chr>   <chr>     <chr>    
#>  1 W05001606 Mold West             W06000005 Flints… Sir y … W10000001 North Wa…
#>  2 W05001605 Mold South            W06000005 Flints… Sir y … W10000001 North Wa…
#>  3 W05001604 Mold East             W06000005 Flints… Sir y … W10000001 North Wa…
#>  4 W05001603 Mold: Broncoed        W06000005 Flints… Sir y … W10000001 North Wa…
#>  5 W05001602 Llanfynydd            W06000005 Flints… Sir y … W10000001 North Wa…
#>  6 W05001601 Llanasa and Trelawnyd W06000005 Flints… Sir y … W10000001 North Wa…
#>  7 W05001600 Leeswood              W06000005 Flints… Sir y … W10000001 North Wa…
#>  8 W05001599 Hope                  W06000005 Flints… Sir y … W10000001 North Wa…
#>  9 W05001598 Holywell West         W06000005 Flints… Sir y … W10000001 North Wa…
#> 10 W05001597 Holywell East         W06000005 Flints… Sir y … W10000001 North Wa…
#> # ℹ 754 more rows
…
