Create a lookup table by querying the ONS OpenGeography API — create_lookup_table • boundr
…
chatty
Boolean. Whether to print feedback on the 'decisions' the
function has taken about which table to query. Default TRUE when the
function is run in an interactive session, FALSE otherwise.

    Value

A tibble

    Examples

create_lookup_table("msoa", "lad", "Swindon")
#> Joining with `by = join_by(msoa21nm)`
#> # A tibble: 27 × 5
#>    lad23cd   lad23nm msoa21nm    msoa21cd  msoa21hclnm                          
#>    <chr>     <chr>   <chr>       <chr>     <chr>                                
#>  1 E06000030 Swindon Swindon 020 E02003231 Park North & Park South              
#>  2 E06000030 Swindon Swindon 016 E02003227 Walcot East                          
#>  3 E06000030 Swindon Swindon 003 E02003214 Penhill                              
#>  4 E06000030 Swindon Swindon 008 E02003219 Broad Blunsdon, South Marston & Wanb…
#>  5 E06000030 Swindon Swindon 009 E02003220 Lower Stratton                       
#>  6 E06000030 Swindon Swindon 005 E02003216 Upper Stratton                       
#>  7 E06000030 Swindon Swindon 014 E02003225 Westlea & Shaw                       
#>  8 E06000030 Swindon Swindon 011 E02003222 Roughmoor                            
#>  9 E06000030 Swindon Swindon 022 E02003233 Freshbrook South & Toothill          
#> 10 E06000030 Swindon Swindon 017 E02003228 Central East & Walcot West           
#> # ℹ 17 more rows
create_lookup_table("wd", "sener", lookup_year = 2022, return_width = "full")
#> # A tibble: 764 × 7
#>    wd22cd    wd22nm          ua22cd    ua22nm        ua22nmw sener22cd sener22nm
#>    <chr>     <chr>           <chr>     <chr>         <chr>   <chr>     <chr>    
#>  1 W05001492 Aethwy          W06000001 Isle of Angl… Ynys M… W10000001 North Wa…
#>  2 W05001493 Bodowyr         W06000001 Isle of Angl… Ynys M… W10000001 North Wa…
#>  3 W05001494 Bro Aberffraw   W06000001 Isle of Angl… Ynys M… W10000001 North Wa…
#>  4 W05001495 Bro'r Llynnoedd W06000001 Isle of Angl… Ynys M… W10000001 North Wa…
#>  5 W05001496 Canolbarth Môn  W06000001 Isle of Angl… Ynys M… W10000001 North Wa…
#>  6 W05001497 Cefni           W06000001 Isle of Angl… Ynys M… W10000001 North Wa…
#>  7 W05001498 Crigyll         W06000001 Isle of Angl… Ynys M… W10000001 North Wa…
#>  8 W05001499 Lligwy          W06000001 Isle of Angl… Ynys M… W10000001 North Wa…
#>  9 W05001500 Parc a'r Mynydd W06000001 Isle of Angl… Ynys M… W10000001 North Wa…
#> 10 W05001501 Seiriol         W06000001 Isle of Angl… Ynys M… W10000001 North Wa…
#> # ℹ 754 more rows
…
