Retrieve Area Boundaries and Data from the ONS Open Geography Portal • boundr
…
You can just request bare lookup tables - no spatial data attached

create_lookup_table("spc", "spr")

# A tibble: 73 × 4
   spc23cd   spc23nm                        spr23cd   spr23nm              
   <chr>     <chr>                          <chr>     <chr>                
 1 S16000083 Argyll and Bute                S17000011 Highlands and Islands
 2 S16000086 Caithness, Sutherland and Ross S17000011 Highlands and Islands
 3 S16000110 Na h-Eileanan an Iar           S17000011 Highlands and Islands
 4 S16000125 Inverness and Nairn            S17000011 Highlands and Islands
 5 S16000132 Moray                          S17000011 Highlands and Islands
 6 S16000135 Orkney Islands                 S17000011 Highlands and Islands
 7 S16000142 Shetland Islands               S17000011 Highlands and Islands
 8 S16000143 Skye, Lochaber and Badenoch    S17000011 Highlands and Islands
 9 S16000080 Almond Valley                  S17000012 Lothian              
10 S16000104 Edinburgh Central              S17000012 Lothian              
# ℹ 63 more rows

A lookup table for Welsh local authorities to Senedd electoral regions

Sometimes boundr needs a little help finding what you are looking for. Supplying a year or country filter can help get the right table.

Using return_with = "full" includes all available columns, not just those referred to by the lookup and within arguments.

# This doesn't succeed:
# create_lookup_table("wd", "sener")

# supplying a year helps:
create_lookup_table("wd", "sener", lookup_year = 2023, return_width = "full")

# A tibble: 764 × 9
   wd23cd    wd23nm wd23nmw ua23cd ua23nm ua23nmw sener23cd sener23nm sener23nmw
   <chr>     <chr>  <chr>   <chr>  <chr>  <chr>   <chr>     <chr>     <chr>     
 1 W05001715 Bango… Bangor… W0600… Wrexh… Wrecsam W10000001 North Wa… Gogledd C…
 2 W05001714 Acton… Gwauny… W0600… Wrexh… Wrecsam W10000001 North Wa… Gogledd C…
 3 W05001713 Acref… Gogled… W0600… Wrexh… Wrecsam W10000001 North Wa… Gogledd C…
 4 W05001615 Whitf… Chwitf… W0600… Flint… Sir y … W10000001 North Wa… Gogledd C…
 5 W05001614 Treud… Treudd… W0600… Flint… Sir y … W10000001 North Wa… Gogledd C…
 6 W05001613 Shott… Gorlle… W0600… Flint… Sir y … W10000001 North Wa… Gogledd C…
 7 W05001612 Shott… Dwyrai… W0600… Flint… Sir y … W10000001 North Wa… Gogledd C…
 8 W05001611 Saltn… Saltne… W0600… Flint… Sir y … W10000001 North Wa… Gogledd C…
 9 W05001610 Queen… Queens… W0600… Flint… Sir y … W10000001 North Wa… Gogledd C…
10 W05001609 Pen-y… Pen-y-… W0600… Flint… Sir y … W10000001 North Wa… Gogledd C…
# ℹ 754 more rows
…
