Return boundary data at a specified level and area from the ONS OG API — bounds • boundr
…
    an sfc tibble (data frame with geometry)

    See also

    boundr_options

    Examples

bounds("msoa", "lad", "Swansea")
#> Simple feature collection with 30 features and 7 fields
#> Geometry type: MULTIPOLYGON
#> Dimension:     XY
#> Bounding box:  xmin: -4.333587 ymin: 51.53577 xmax: -3.842747 ymax: 51.77423
#> Geodetic CRS:  WGS 84
#> # A tibble: 30 × 8
#>    msoa21cd  msoa21nm    lad24cd   lad24nm msoa21nmw    msoa21hclnm msoa21hclnmw
#>    <chr>     <chr>       <chr>     <chr>   <chr>        <chr>       <chr>       
#>  1 W02000168 Swansea 001 W06000011 Swansea Abertawe 001 Pontarddul… Pontarddula…
#>  2 W02000169 Swansea 002 W06000011 Swansea Abertawe 002 Clydach & … Clydach a M…
#>  3 W02000170 Swansea 003 W06000011 Swansea Abertawe 003 Morriston … Gogledd Tre…
#>  4 W02000171 Swansea 004 W06000011 Swansea Abertawe 004 Llangyfela… Llangyfelac…
#>  5 W02000172 Swansea 005 W06000011 Swansea Abertawe 005 Gorseinon   Gorseinon   
#>  6 W02000173 Swansea 006 W06000011 Swansea Abertawe 006 Birchgrove  Gellifedw   
#>  7 W02000174 Swansea 007 W06000011 Swansea Abertawe 007 Loughor     Casllwchwr  
#>  8 W02000175 Swansea 008 W06000011 Swansea Abertawe 008 Morriston … De Treforys 
#>  9 W02000176 Swansea 009 W06000011 Swansea Abertawe 009 Mynydd-bach Mynydd-bach 
#> 10 W02000177 Swansea 010 W06000011 Swansea Abertawe 010 Llansamlet  Llansamlet  
#> # ℹ 20 more rows
#> # ℹ 1 more variable: geometry <MULTIPOLYGON [°]>
…
#> Geometry type: POLYGON
#> Dimension:     XY
#> Bounding box:  xmin: -3.989641 ymin: 51.70209 xmax: -2.952245 ymax: 52.07827
#> Geodetic CRS:  WGS 84
#> # A tibble: 1 × 3
#>   npark22cd npark22nm                                                   geometry
#>   <chr>     <chr>                                                  <POLYGON [°]>
#> 1 W18000001 Bannau Brycheiniog ((-3.120246 52.07322, -3.119622 52.0728, -3.1202…
bounds("msoa", "utla", "Swindon", geometry = "centroids")
#> Simple feature collection with 27 features and 5 fields
#> Geometry type: POINT
#> Dimension:     XY
#> Bounding box:  xmin: -1.841969 ymin: 51.52607 xmax: -1.711772 ymax: 51.63355
#> Geodetic CRS:  WGS 84
#> # A tibble: 27 × 6
#>    msoa21cd  msoa21nm    msoa21hclnm utla23cd utla23nm             geometry
#>    <chr>     <chr>       <chr>       <chr>    <chr>             <POINT [°]>
#>  1 E02003227 Swindon 016 Walcot East E060000… Swindon  (-1.755953 51.56128)
#>  2 E02003221 Swindon 010 Gorse Hill  E060000… Swindon  (-1.778586 51.57297)
#>  3 E02003235 Swindon 024 Lawn & Eas… E060000… Swindon  (-1.771018 51.54633)
#>  4 E02003226 Swindon 015 Central No… E060000… Swindon   (-1.780904 51.5642)
#>  5 E02006847 Swindon 026 Mouldon Hi… E060000… Swindon  (-1.826195 51.59848)
#>  6 E02003222 Swindon 011 Roughmoor   E060000… Swindon   (-1.840047 51.5718)
#>  7 E02003214 Swindon 003 Penhill     E060000… Swindon  (-1.782552 51.59257)
#>  8 E02003224 Swindon 013 Covingham   E060000… Swindon  (-1.734986 51.56627)
#>  9 E02003232 Swindon 021 Kingshill … E060000… Swindon   (-1.792952 51.5512)
#> 10 E02003219 Swindon 008 Broad Blun… E060000… Swindon  (-1.795708 51.60868)
#> # ℹ 17 more rows
…
