Create a lookup table by querying the ONS OpenGeography API — lookup • boundr
…
opts
Should be set with the boundr_options() function. See
?boundr_options for detail on what can be set by the user, and on the
default values.

    Value

    A tibble

    Examples

lookup("msoa", "lad", "Swindon")
#> # A tibble: 27 × 5
#>    msoa21cd  msoa21nm    msoa21hclnm                    lad24cd   lad24nm
#>    <chr>     <chr>       <chr>                          <chr>     <chr>  
#>  1 E02003230 Swindon 019 Central South & Eastcott       E06000030 Swindon
#>  2 E02003221 Swindon 010 Gorse Hill                     E06000030 Swindon
#>  3 E02003231 Swindon 020 Park North & Park South        E06000030 Swindon
#>  4 E02003229 Swindon 018 Freshbrook North & Grange Park E06000030 Swindon
#>  5 E02003233 Swindon 022 Freshbrook South & Toothill    E06000030 Swindon
#>  6 E02003223 Swindon 012 Rodbourne & Cheney Manor       E06000030 Swindon
#>  7 E02003235 Swindon 024 Lawn & East Wichel             E06000030 Swindon
#>  8 E02003232 Swindon 021 Kingshill & Okus               E06000030 Swindon
#>  9 E02006847 Swindon 026 Mouldon Hill & Oakhurst        E06000030 Swindon
#> 10 E02003218 Swindon 007 Pinehurst                      E06000030 Swindon
#> # ℹ 17 more rows
lookup("wd", "sener", opts = opts(return_width = "full"))
#> # A tibble: 764 × 9
#>    wd23cd    wd23nm wd23nmw ua23cd ua23nm ua23nmw sener23cd sener23nm sener23nmw
#>    <chr>     <chr>  <chr>   <chr>  <chr>  <chr>   <chr>     <chr>     <chr>     
#>  1 W05001492 Aethwy Aethwy  W0600… Isle … Ynys M… W10000001 North Wa… Gogledd C…
#>  2 W05001493 Bodow… Bodowyr W0600… Isle … Ynys M… W10000001 North Wa… Gogledd C…
#>  3 W05001494 Bro A… Bro Ab… W0600… Isle … Ynys M… W10000001 North Wa… Gogledd C…
#>  4 W05001495 Bro'r… Bro'r … W0600… Isle … Ynys M… W10000001 North Wa… Gogledd C…
#>  5 W05001496 Canol… Canolb… W0600… Isle … Ynys M… W10000001 North Wa… Gogledd C…
#>  6 W05001497 Cefni  Cefni   W0600… Isle … Ynys M… W10000001 North Wa… Gogledd C…
#>  7 W05001498 Crigy… Crigyll W0600… Isle … Ynys M… W10000001 North Wa… Gogledd C…
#>  8 W05001499 Lligwy Lligwy  W0600… Isle … Ynys M… W10000001 North Wa… Gogledd C…
#>  9 W05001500 Parc … Parc a… W0600… Isle … Ynys M… W10000001 North Wa… Gogledd C…
#> 10 W05001501 Seiri… Seiriol W0600… Isle … Ynys M… W10000001 North Wa… Gogledd C…
#> # ℹ 754 more rows
…
